…
```
**hint** To return two values, place the two values in a tibble or vector.

<div id="get_mean-hint">
Write a function that takes `N`, a sample size, and `true_mean`, the true mean, and returns the observed mean and standard deviation from a random sample from the normal distribution with mean = `true_mean`. (We'll keep standard deviation = 1 which is the `rnorm()` default).
</div>

Finally, write a function that wraps your `get_mean_and_sd_from_random_sample()` in a loop and outputs a tibble with `B` sample means and sample sd where `B` is the number of monte carlo simulations you run.
```
e.g.
> monte_carlo_samples(30, .5, 1000)
# A tibble: 1,000 x 2
mean    sd
<dbl> <dbl>
  1 0.677 1.03
2 0.440 0.902
3 0.377 1.21
4 0.541 0.970
5 0.451 0.990
6 0.528 0.929
7 0.690 1.06
8 0.444 0.959
9 0.573 0.954
10 0.518 0.948
# … with 990 more rows
```
…
