Coding Lab: Reading Files, Data Frames and Calculations
…
selecting columns with select()

Use case: You want to present a subset of your columns

select(texas_housing_data, city, date, sales, listings)

## # A tibble: 8,602 x 4
##    city     date sales listings
##    <chr>   <dbl> <dbl>    <dbl>
##  1 Abilene 2000     72      701
##  2 Abilene 2000.    98      746
##  3 Abilene 2000.   130      784
##  4 Abilene 2000.    98      785
##  5 Abilene 2000.   141      794
##  6 Abilene 2000.   156      780
##  7 Abilene 2000.   152      742
##  8 Abilene 2001.   131      765
##  9 Abilene 2001.   104      771
## 10 Abilene 2001.   101      764
## #  with 8,592 more rows

selecting columns with select()

Use case: You want to present a subset of your columns

select(texas_housing_data, -c(city, date, sales, listings))

## # A tibble: 8,602 x 5
##     year month   volume median inventory
##    <int> <int>    <dbl>  <dbl>     <dbl>
##  1  2000     1  5380000  71400       6.3
##  2  2000     2  6505000  58700       6.6
##  3  2000     3  9285000  58100       6.8
##  4  2000     4  9730000  68600       6.9
##  5  2000     5 10590000  67300       6.8
##  6  2000     6 13910000  66900       6.6
##  7  2000     7 12635000  73500       6.2
##  8  2000     8 10710000  75000       6.4
##  9  2000     9  7615000  64500       6.5
## 10  2000    10  7040000  59300       6.6
## #  with 8,592 more rows
selecting columns with select()

Use case: You want to present a subset of your columns

select(texas_housing_data, -c(city, date, sales, listings))

The - says to exclude the columns listed in the vector.

selecting columns with select(), helpers

Use case: You want to reorder your columns

select(texas_housing_data, city, date, sales, listings, everything())

## # A tibble: 8,602 x 9
##    city     date sales listings  year month   volume median inventory
##    <chr>   <dbl> <dbl>    <dbl> <int> <int>    <dbl>  <dbl>     <dbl>
##  1 Abilene 2000     72      701  2000     1  5380000  71400       6.3
##  2 Abilene 2000.    98      746  2000     2  6505000  58700       6.6
##  3 Abilene 2000.   130      784  2000     3  9285000  58100       6.8
##  4 Abilene 2000.    98      785  2000     4  9730000  68600       6.9
##  5 Abilene 2000.   141      794  2000     5 10590000  67300       6.8
##  6 Abilene 2000.   156      780  2000     6 13910000  66900       6.6
##  7 Abilene 2000.   152      742  2000     7 12635000  73500       6.2
##  8 Abilene 2001.   131      765  2000     8 10710000  75000       6.4
##  9 Abilene 2001.   104      771  2000     9  7615000  64500       6.5
## 10 Abilene 2001.   101      764  2000    10  7040000  59300       6.6
## #  with 8,592 more rows
…
creating columns with mutate()

Use case: you want to create a new column of data

mutate(texas_housing_data, mean_house_price = volume / sales)

## # A tibble: 8,602 x 10
##    city   year month sales volume median listings inventory  date
##    <chr> <int> <int> <dbl>  <dbl>  <dbl>    <dbl>     <dbl> <dbl>
##  1 Abil  2000     1    72 5.38e6  71400      701       6.3 2000 
##  2 Abil  2000     2    98 6.50e6  58700      746       6.6 2000.
##  3 Abil  2000     3   130 9.28e6  58100      784       6.8 2000.
##  4 Abil  2000     4    98 9.73e6  68600      785       6.9 2000.
##  5 Abil  2000     5   141 1.06e7  67300      794       6.8 2000.
##  6 Abil  2000     6   156 1.39e7  66900      780       6.6 2000.
##  7 Abil  2000     7   152 1.26e7  73500      742       6.2 2000.
##  8 Abil  2000     8   131 1.07e7  75000      765       6.4 2001.
##  9 Abil  2000     9   104 7.62e6  64500      771       6.5 2001.
## 10 Abil  2000    10   101 7.04e6  59300      764       6.6 2001.
## #  with 8,592 more rows, and 1 more variable: mean_house_price <dbl>
…
We couldnt see the result!

One approach:

Store mutate() step as intermediate data.

Then use select()

texas_housing_data_w_mean <- 
  mutate(texas_housing_data, mean_house_price = volume / sales)

select(texas_housing_data_w_mean, 
       city, date, mean_house_price, median)

## # A tibble: 8,602 x 4
##    city     date mean_house_price median
##    <chr>   <dbl>            <dbl>  <dbl>
##  1 Abilene 2000            74722.  71400
##  2 Abilene 2000.           66378.  58700
##  3 Abilene 2000.           71423.  58100
##  4 Abilene 2000.           99286.  68600
##  5 Abilene 2000.           75106.  67300
##  6 Abilene 2000.           89167.  66900
##  7 Abilene 2000.           83125   73500
##  8 Abilene 2001.           81756.  75000
##  9 Abilene 2001.           73221.  64500
## 10 Abilene 2001.           69703.  59300
## #  with 8,592 more rows
…
# a tibble is the first argument
select(texas_housing_data, city, year, sales, volume) 

texas_housing_data %>% 
  select(city, year, sales, volume)

Ceci est une %>%

We can chain together tidyverse functions to avoid making so many intermediate data frames!

texas_housing_data %>%
  mutate(mean_house_price = volume / sales) %>%
  select(city, date, mean_house_price, median)

## # A tibble: 8,602 x 4
##    city     date mean_house_price median
##    <chr>   <dbl>            <dbl>  <dbl>
##  1 Abilene 2000            74722.  71400
##  2 Abilene 2000.           66378.  58700
##  3 Abilene 2000.           71423.  58100
##  4 Abilene 2000.           99286.  68600
##  5 Abilene 2000.           75106.  67300
##  6 Abilene 2000.           89167.  66900
##  7 Abilene 2000.           83125   73500
##  8 Abilene 2001.           81756.  75000
##  9 Abilene 2001.           73221.  64500
## 10 Abilene 2001.           69703.  59300
## #  with 8,592 more rows
…
grouped summary with group_by() + summarize()

Use case: You want summary statistics for certain subsets of the data.

texas_housing_data %>%
  group_by(city, year) %>%
  summarize(total_sales = sum(sales, na.rm = TRUE),
            total_volume = sum(volume, na.rm = TRUE),
            mean_house_price = total_volume / total_sales)

## # A tibble: 736 x 5
## # Groups:   city [46]
##    city     year total_sales total_volume mean_house_price
##    <chr>   <int>       <dbl>        <dbl>            <dbl>
##  1 Abilene  2000        1375    108575000           78964.
##  2 Abilene  2001        1431    114365000           79920.
##  3 Abilene  2002        1516    118675000           78282.
##  4 Abilene  2003        1632    135675000           83134.
##  5 Abilene  2004        1830    159670000           87251.
##  6 Abilene  2005        1977    198855000          100584.
##  7 Abilene  2006        1997    227530000          113936.
##  8 Abilene  2007        2003    232062585          115858.
##  9 Abilene  2008        1651    192520335          116608.
## 10 Abilene  2009        1634    202357756          123842.
## #  with 726 more rows
…
texas_housing_data %>%
  arrange(year)

## # A tibble: 8,602 x 9
##    city     year month sales   volume median listings inventory  date
##    <chr>   <int> <int> <dbl>    <dbl>  <dbl>    <dbl>     <dbl> <dbl>
##  1 Abilene  2000     1    72  5380000  71400      701       6.3 2000 
##  2 Abilene  2000     2    98  6505000  58700      746       6.6 2000.
##  3 Abilene  2000     3   130  9285000  58100      784       6.8 2000.
##  4 Abilene  2000     4    98  9730000  68600      785       6.9 2000.
##  5 Abilene  2000     5   141 10590000  67300      794       6.8 2000.
##  6 Abilene  2000     6   156 13910000  66900      780       6.6 2000.
##  7 Abilene  2000     7   152 12635000  73500      742       6.2 2000.
##  8 Abilene  2000     8   131 10710000  75000      765       6.4 2001.
##  9 Abilene  2000     9   104  7615000  64500      771       6.5 2001.
## 10 Abilene  2000    10   101  7040000  59300      764       6.6 2001.
## #  with 8,592 more rows

texas_housing_data %>%
  arrange(desc(year))

## # A tibble: 8,602 x 9
##    city      year month sales   volume median listings inventory  date
##    <chr>    <int> <int> <dbl>    <dbl>  <dbl>    <dbl>     <dbl> <dbl>
##  1 Abilene   2015     1   158 23486998 134100      801       4.4 2015 
##  2 Abilene   2015     2   151 19834263 126500      767       4.1 2015.
##  3 Abilene   2015     3   198 31869437 136800      821       4.4 2015.
##  4 Abilene   2015     4   201 28301159 129600      891       4.7 2015.
##  5 Abilene   2015     5   199 31385757 144700      919       4.8 2015.
##  6 Abilene   2015     6   260 41396230 141500      965       5   2015.
##  7 Abilene   2015     7   268 45845730 148700      986       5   2016.
##  8 Amarillo  2015     1   204 33188726 138500     1120       4.3 2015 
##  9 Amarillo  2015     2   188 34355428 149400     1084       4.2 2015.
## 10 Amarillo  2015     3   317 53603130 140900     1051       3.9 2015.
## #  with 8,592 more rows
…
texas_housing_data %>%
  filter(year == 2013)

## # A tibble: 552 x 9
##    city     year month sales   volume median listings inventory  date
##    <chr>   <int> <int> <dbl>    <dbl>  <dbl>    <dbl>     <dbl> <dbl>
##  1 Abilene  2013     1   114 15794494 125300      966       5.7 2013 
##  2 Abilene  2013     2   140 16552641  94400      943       5.6 2013.
##  3 Abilene  2013     3   164 19609711 102500      958       5.7 2013.
##  4 Abilene  2013     4   213 27261796 113700      948       5.5 2013.
##  5 Abilene  2013     5   225 31901380 130000      923       5.3 2013.
##  6 Abilene  2013     6   209 29454125 127300      960       5.5 2013.
##  7 Abilene  2013     7   218 32547446 140000      969       5.4 2014.
##  8 Abilene  2013     8   236 30777727 120000      976       5.4 2014.
##  9 Abilene  2013     9   195 26237106 127500      985       5.4 2014.
## 10 Abilene  2013    10   167 21781187 119000      993       5.5 2014.
## #  with 542 more rows
…
