Coding Lab: For Loops
…
We might need a dataframe (or in our case, well use a tibble)!

sample_sizes <- 1:30
means_df <- tibble(sample_size = integer(),
                   mean = double())

for (i in seq_along(sample_sizes)) {
  sample_mean <- mean(rnorm(i))
  means_df <- bind_rows(means_df, c(sample_size = i, mean = sample_mean))
}

means_df

## # A tibble: 30 x 2
##    sample_size      mean
##          <dbl>     <dbl>
##  1           1 -1.08    
##  2           2  0.0723  
##  3           3  0.649   
##  4           4  0.283   
##  5           5  0.204   
##  6           6  0.209   
##  7           7 -0.167   
##  8           8  0.348   
##  9           9 -0.114   
## 10          10 -0.000933
## #  with 20 more rows
…
